# Blender MTL File: 'None'
# Material Count: 5

newmtl E_face
Ns 94.117647
Ka 0.000000 0.000000 0.000000
Kd 0.778000 0.778000 0.778000
Ks 0.000000 0.000000 0.000000
Ke 0.000000 0.000000 0.000000
Ni 1.000000
d 1.000000
illum 2
map_Kd E_face.tga

newmtl E_main
Ns 94.117647
Ka 0.000000 0.000000 0.000000
Kd 0.778000 0.778000 0.778000
Ks 0.000000 0.000000 0.000000
Ke 0.000000 0.000000 0.000000
Ni 1.000000
d 1.000000
illum 2
map_Kd E_main.tga

newmtl kart_body
Ns 94.117647
Ka 0.000000 0.000000 0.000000
Kd 0.778000 0.778000 0.778000
Ks 0.000000 0.000000 0.000000
Ke 0.000000 0.000000 0.000000
Ni 1.000000
d 1.000000
illum 2
map_Kd kart_body.tga

newmtl kart_e
Ns 94.117647
Ka 0.000000 0.000000 0.000000
Kd 0.778000 0.778000 0.778000
Ks 0.000000 0.000000 0.000000
Ke 0.000000 0.000000 0.000000
Ni 1.000000
d 0.000000
illum 2
map_Kd kart_e.tga

newmtl kart_tire
Ns 94.117647
Ka 0.000000 0.000000 0.000000
Kd 0.778000 0.778000 0.778000
Ks 0.000000 0.000000 0.000000
Ke 0.000000 0.000000 0.000000
Ni 1.000000
d 1.000000
illum 2
map_Kd kart_tire.tga
